…
earnings %>% 
  select(height, sex, earn)
```

    #> # A tibble: 1,816 x 3
    #>    height sex     earn
    #>     <dbl> <chr>  <dbl>
    #>  1     74 Male   50000
    #>  2     66 Female 60000
    #>  3     64 Female 30000
    #>  4     65 Female 25000
    #>  5     63 Female 50000
    #>  6     68 Female 62000
    #>  7     63 Female 51000
    #>  8     64 Female  9000
    #>  9     62 Female 29000
    #> 10     73 Male   32000
    #> # … with 1,806 more rows
…
