…
earnings %>% 
  select(age, sex, earn)
```

    #> # A tibble: 1,816 x 3
    #>      age sex     earn
    #>    <dbl> <chr>  <dbl>
    #>  1    45 male   50000
    #>  2    58 female 60000
    #>  3    29 female 30000
    #>  4    57 female 25000
    #>  5    91 female 50000
    #>  6    54 female 62000
    #>  7    39 female 51000
    #>  8    26 female  9000
    #>  9    49 female 29000
    #> 10    46 male   32000
    #> # … with 1,806 more rows
…
<img src="earnings_bootstrap_tv_files/figure-gfm/unnamed-chunk-6-1.png" width="100%" />

``` r
earnings_ratio_boot %>% 
  count(earnings_ratio, sort = TRUE) %>% 
  mutate(prop_cum = cumsum(n) / sum(n))
```

    #> # A tibble: 48 x 3
    #>    earnings_ratio     n prop_cum
    #>             <dbl> <int>    <dbl>
    #>  1          0.6    6998    0.700
    #>  2          0.56   1698    0.870
    #>  3          0.52    508    0.920
    #>  4          0.580   151    0.936
    #>  5          0.48    109    0.946
    #>  6          0.625   102    0.957
    #>  7          0.59     66    0.963
    #>  8          0.5      56    0.969
    #>  9          0.652    52    0.974
    #> 10          0.570    49    0.979
    #> # … with 38 more rows
…
