…
``` r
voters <- 
  votes %>% 
  pull(voters) %>% 
  unique() %>% 
  sort()
voters_total <- max(voters)

votes %>% 
  filter(voters == voters_total) %>% 
  select(!voters) %>% 
  arrange(desc(votes))
```

    #> # A tibble: 27 x 3
    #>    name_1          name_2           votes
    #>    <chr>           <chr>            <dbl>
    #>  1 Al Shapiro      Hal Spitzer       3040
    #>  2 Marie Heath     Margie Best       2300
    #>  3 Craig Williams  Greg Stevens      2176
    #>  4 Saul Weber      Josh Walker       2131
    #>  5 Othelia Jones   Clotelia Smith    2020
    #>  6 Tom Barrett     Dave Barron       1973
    #>  7 Alonzo Newton   Alphonse Preston  1855
    #>  8 Tony Illis      Andy Willis       1571
    #>  9 Alan Berger     <NA>              1519
    #> 10 Ruben Berkowitz <NA>              1346
    #> # … with 17 more rows
…
