Regression and Other Stories: Elections Economy
…
# Run common code
source(file_common)

Chapter 1

Data

hibbs <- 
  file_hibbs %>% 
  read.table(header = TRUE) %>% 
  as_tibble()

hibbs

#> # A tibble: 16 x 5
#>    year growth  vote inc_party_candidate other_candidate
#>   <int>  <dbl> <dbl> <chr>               <chr>          
#> 1  1952   2.4   44.6 Stevenson           Eisenhower     
#> 2  1956   2.89  57.8 Eisenhower          Stevenson      
#> 3  1960   0.85  49.9 Nixon               Kennedy        
#> 4  1964   4.21  61.3 Johnson             Goldwater      
#> 5  1968   3.02  49.6 Humphrey            Nixon          
#> 6  1972   3.62  61.8 Nixon               McGovern       
#> #  with 10 more rows
…
