…
``` r
electric <- 
  electric_wide %>% 
  pivot_longer(
    cols = matches("(control|treated)_(pretest|posttest)"),
    names_to = c("group", "test"),
    names_pattern = "(.*)_(.*)",
    values_to = "score"
  )

electric
```

    #> # A tibble: 384 x 6
    #>    city   grade supplement group   test     score
    #>    <chr>  <dbl> <chr>      <chr>   <chr>    <dbl>
    #>  1 Fresno     1 Supplement treated pretest   13.8
    #>  2 Fresno     1 Supplement treated posttest  48.9
    #>  3 Fresno     1 Supplement control pretest   12.3
    #>  4 Fresno     1 Supplement control posttest  52.3
    #>  5 Fresno     1 Replace    treated pretest   16.5
    #>  6 Fresno     1 Replace    treated posttest  70.5
    #>  7 Fresno     1 Replace    control pretest   14.4
    #>  8 Fresno     1 Replace    control posttest  55  
    #>  9 Fresno     1 Supplement treated pretest   18.5
    #> 10 Fresno     1 Supplement treated posttest  89.7
    #> # … with 374 more rows
…
